<?xml version="1.0" encoding="UTF-8" standalone="no"?>
<!-- Created with Inkscape (http://www.inkscape.org/) -->

<svg
   xmlns:dc="http://purl.org/dc/elements/1.1/"
   xmlns:cc="http://creativecommons.org/ns#"
   xmlns:rdf="http://www.w3.org/1999/02/22-rdf-syntax-ns#"
   xmlns:svg="http://www.w3.org/2000/svg"
   xmlns="http://www.w3.org/2000/svg"
   xmlns:sodipodi="http://sodipodi.sourceforge.net/DTD/sodipodi-0.dtd"
   xmlns:inkscape="http://www.inkscape.org/namespaces/inkscape"
   version="1.1"
   id="svg815"
   width="270"
   height="270"
   viewBox="0 0 270 270"
   sodipodi:docname="cloud.svg"
   inkscape:version="0.92.3 (2405546, 2018-03-11)">
  <metadata
     id="metadata821">
    <rdf:RDF>
      <cc:Work
         rdf:about="">
        <dc:format>image/svg+xml</dc:format>
        <dc:type
           rdf:resource="http://purl.org/dc/dcmitype/StillImage" />
        <dc:title></dc:title>
      </cc:Work>
    </rdf:RDF>
  </metadata>
  <defs
     id="defs819" />
  <sodipodi:namedview
     pagecolor="#ffffff"
     bordercolor="#666666"
     borderopacity="1"
     objecttolerance="10"
     gridtolerance="10"
     guidetolerance="10"
     inkscape:pageopacity="0"
     inkscape:pageshadow="2"
     inkscape:window-width="1920"
     inkscape:window-height="1017"
     id="namedview817"
     showgrid="false"
     inkscape:zoom="2.2208391"
     inkscape:cx="210.85632"
     inkscape:cy="107.95727"
     inkscape:window-x="-8"
     inkscape:window-y="-8"
     inkscape:window-maximized="1"
     inkscape:current-layer="svg815" />
  <g
     id="g827"
     transform="translate(-3.6022416,-1.3771022)">
    <path
       style="fill:#28a6dd"
       d="M 114.69426,208.47964 C 103.8011,196.66001 95.165159,186.54178 95.503276,185.9947 95.85297,185.42888 101.05103,185 107.55902,185 H 119 v -28.3 c 0,-20.67778 0.3232,-28.6232 1.2,-29.5 0.82374,-0.82374 5.77778,-1.2 15.8,-1.2 10.02222,0 14.97626,0.37626 15.8,1.2 0.8768,0.8768 1.2,8.82222 1.2,29.5 V 185 h 11.44098 c 6.50799,0 11.70605,0.42888 12.05574,0.9947 0.7952,1.28665 -38.51665,43.97518 -40.49672,43.97518 -0.825,0 -10.41258,-9.67061 -21.30574,-21.49024 z M 55.356422,202.0119 C 39.677726,200.61841 26.886374,191.7627 19.911198,177.47248 16.670125,170.83241 16.507686,169.97558 16.503937,159.5 c -0.0037,-10.26033 0.207084,-11.44537 3.13427,-17.62338 4.995656,-10.54364 13.383384,-18.57637 23.47305,-22.47959 2.413809,-0.93379 4.682726,-1.96762 5.042038,-2.29741 0.359313,-0.32979 0.316572,-2.74754 -0.09498,-5.37278 -1.715425,-10.94251 2.563055,-22.503823 11.202509,-30.271435 10.395335,-9.3463 24.954752,-11.06992 38.244195,-4.527549 3.648901,1.796349 6.764261,3.109951 6.923011,2.919117 C 104.58678,79.656138 105.94311,77.025 107.4421,74 c 8.77585,-17.709921 24.92592,-29.488173 44.91204,-32.754373 12.79145,-2.090422 24.23369,-0.263381 36.53968,5.834479 C 208.09086,56.592614 222,77.858113 222,97.695704 v 5.275506 l 6.23797,3.14892 c 7.4461,3.75878 18.10405,14.15612 21.9925,21.45473 5.65795,10.61996 7.31682,25.06451 4.23662,36.89018 -4.4501,17.08507 -18.21066,30.90414 -35.96709,36.12003 -7.50611,2.20489 -43,2.78219 -43,0.69939 0,-0.66855 4.1625,-5.69731 9.25,-11.17503 C 189.8375,184.63171 194,179.6662 194,179.07497 194,178.35348 188.77902,178 178.12244,178 c -12.00965,0 -16.14706,-0.32474 -16.98388,-1.33305 -0.73534,-0.88603 -1.19557,-10.69463 -1.37245,-29.25 L 159.5,119.5 135.75,119.2319 112,118.9638 v 28.3181 c 0,20.69186 -0.32317,28.64127 -1.2,29.5181 -0.83207,0.83207 -6.04444,1.2 -17,1.2 -10.601261,0 -15.8,0.3537 -15.8,1.07497 0,0.59123 4.1625,5.55674 9.25,11.03446 5.0875,5.47772 9.25,10.50648 9.25,11.17503 0,1.42711 -27.750922,1.91776 -41.143578,0.72744 z"
       id="path831"
       inkscape:connector-curvature="0" />
    <path
       style="fill:#94c044"
       d="M 114.69426,208.47964 C 103.8011,196.66001 95.165159,186.54178 95.503276,185.9947 95.85297,185.42888 101.05103,185 107.55902,185 H 119 v -28.3 c 0,-20.67778 0.3232,-28.6232 1.2,-29.5 0.82374,-0.82374 5.77778,-1.2 15.8,-1.2 10.02222,0 14.97626,0.37626 15.8,1.2 0.8768,0.8768 1.2,8.82222 1.2,29.5 V 185 h 11.44098 c 6.50799,0 11.70605,0.42888 12.05574,0.9947 0.7952,1.28665 -38.51665,43.97518 -40.49672,43.97518 -0.825,0 -10.41258,-9.67061 -21.30574,-21.49024 z"
       id="path829"
       inkscape:connector-curvature="0" />
  </g>
</svg>
