<?xml version="1.0" encoding="UTF-8" standalone="no"?>
<!-- Created with Inkscape (http://www.inkscape.org/) -->

<svg
   xmlns:dc="http://purl.org/dc/elements/1.1/"
   xmlns:cc="http://creativecommons.org/ns#"
   xmlns:rdf="http://www.w3.org/1999/02/22-rdf-syntax-ns#"
   xmlns:svg="http://www.w3.org/2000/svg"
   xmlns="http://www.w3.org/2000/svg"
   xmlns:xlink="http://www.w3.org/1999/xlink"
   xmlns:sodipodi="http://sodipodi.sourceforge.net/DTD/sodipodi-0.dtd"
   xmlns:inkscape="http://www.inkscape.org/namespaces/inkscape"
   version="1.1"
   id="svg5398"
   width="512"
   height="512"
   viewBox="0 0 512 512"
   sodipodi:docname="redo.svg"
   inkscape:version="0.92.3 (2405546, 2018-03-11)">
  <metadata
     id="metadata5404">
    <rdf:RDF>
      <cc:Work
         rdf:about="">
        <dc:format>image/svg+xml</dc:format>
        <dc:type
           rdf:resource="http://purl.org/dc/dcmitype/StillImage" />
        <dc:title></dc:title>
      </cc:Work>
    </rdf:RDF>
  </metadata>
  <defs
     id="defs5402">
    <linearGradient
       inkscape:collect="always"
       id="linearGradient5999">
      <stop
         style="stop-color:#4ab4e8;stop-opacity:1"
         offset="0"
         id="stop5995" />
      <stop
         style="stop-color:#3895b6;stop-opacity:0.98823529"
         offset="1"
         id="stop5997" />
    </linearGradient>
    <linearGradient
       inkscape:collect="always"
       xlink:href="#linearGradient5999"
       id="linearGradient6001"
       x1="204.2941"
       y1="147.47858"
       x2="481.38562"
       y2="429.51248"
       gradientUnits="userSpaceOnUse" />
    <linearGradient
       inkscape:collect="always"
       xlink:href="#linearGradient5999"
       id="linearGradient6003"
       gradientUnits="userSpaceOnUse"
       x1="204.2941"
       y1="147.47858"
       x2="481.38562"
       y2="429.51248"
       gradientTransform="matrix(-1,0,0,1,835.37463,-44.474576)" />
  </defs>
  <sodipodi:namedview
     pagecolor="#ffffff"
     bordercolor="#666666"
     borderopacity="1"
     objecttolerance="10"
     gridtolerance="10"
     guidetolerance="10"
     inkscape:pageopacity="0"
     inkscape:pageshadow="2"
     inkscape:window-width="1920"
     inkscape:window-height="1017"
     id="namedview5400"
     showgrid="false"
     inkscape:zoom="0.921875"
     inkscape:cx="48.054764"
     inkscape:cy="304.59317"
     inkscape:window-x="-8"
     inkscape:window-y="-8"
     inkscape:window-maximized="1"
     inkscape:current-layer="g5415" />
  <g
     id="g5408"
     transform="translate(-322.16949,46.237288)">
    <g
       id="g5415"
       style="fill:url(#linearGradient6001);fill-opacity:1">
      <path
         inkscape:connector-curvature="0"
         id="path5410"
         d="m 589.62463,464.51948 c 4.57193,-2.85665 1.11216,-5.88417 -17.75,-15.5324 -74.90966,-38.31719 -119.9908,-81.30299 -132.10169,-125.96166 -2.92318,-10.77918 -2.69928,-35.1498 0.42246,-45.98185 5.19324,-18.01992 13.75124,-32.30947 27.58403,-46.05786 28.91262,-28.73623 76.55377,-45.31388 142.0952,-49.44477 22.46149,-1.41568 31.44274,-1.32832 32.07217,0.31196 0.63847,1.66382 -1.14095,9.57878 -13.07816,58.17252 -5.83104,23.73686 -9.65698,41.37213 -9.77595,45.06122 -0.22262,6.90328 1.74245,11.01429 5.74507,12.01888 6.40172,1.60673 9.67832,-1.15644 96.03687,-80.98843 45.65,-42.19999 85.4304,-79.26567 88.40088,-82.36819 7.5632,-7.89935 10.52238,-14.69506 10.55059,-24.22925 0.0275,-9.29117 -3.01495,-16.221776 -10.15672,-23.136646 -5.4789,-5.30484 -192.3907,-122.769437 -201.29475,-126.503557 -6.41764,-2.691387 -9.74222,-2.923307 -12.65541,-0.88283 -5.73206,4.014892 -3.91514,10.253081 14.52703,49.8768907 18.03754,38.7544433 20.27745,44.3237193 18.31451,45.5368833 -0.72054,0.445313 -5.51993,1.327023 -10.66532,1.959353 -5.14539,0.63233 -15.58,2.29208 -23.18803,3.68833 -91.4477,16.78279 -162.12354,46.962416 -204.5675,87.353346 -27.48642,26.1569 -41.90425,53.89138 -49.44522,95.114 -2.71764,14.85594 -2.46694,45.98814 0.48924,60.7554 3.15556,15.76321 7.25102,27.79914 14.20442,41.7446 25.80059,51.74463 79.73821,88.38799 160.48628,109.02884 31.33201,8.0091 69.10289,13.36883 73.75,10.46522 z"
         style="fill:url(#linearGradient6003);fill-opacity:1" />
    </g>
  </g>
</svg>
